━━━━━━━━━━━━━━━━━━━━━━━━━━━━━━
Information sur pigeOne!
━━━━━━━━━━━━━━━━━━━━━━━━━━━━━━
Merci d'utiliser pigeOne!

Votre nouveau mot de passe a été publié. Nous avons envoyé un email de confirmation au demandeur.


━━━━━━━━━━━━━━━━━━━━━━━━━━━━━━
■pigeOne!
<{$base_url}>
■Developpé et Géré par:
CROSS HEAD <http://www.crosshead.co.jp/>
■Support produit:
Téléphone : 03-4577-8609（10 heures-17 heures du lundi au vendredi）
E-mail: <product-support@crosshead.co.jp>
━━━━━━━━━━━━━━━━━━━━━━━━━━━━━━
