※このメールは送信専用のため、ご返信いただけません。

━━━━━━━━━━━━━━━━━━━━━━━━━━━━━━
V-CUBEミーティングからのお知らせ
━━━━━━━━━━━━━━━━━━━━━━━━━━━━━━
{$info.sender}様からご招待のあった、
下記のWeb会議が中止されましたのでご案内いたします。

■会議名
{$info.reservation_name} 

■予約されていた開催日時
{$guest.starttime} ～ {$guest.endtime} (GMT {if $guest.timezone >= 0}+{/if}{$guest.timezone})

■主催者
{$info.organizer_name} 

------------------------------
{$info.sender}様からのメッセージ
------------------------------
{$info.mail_body} 

※このメールはシステムから自動送信されています。
　この会議についてのお問い合わせは、下記のアドレス宛にご連絡下さい。
{if $info.guest_url_format ==1}
{$info.sender_mail} 
{else}
　<{$info.sender_mail}>
{/if}

------------------------------
V-CUBEミーティングとは？
------------------------------
Web会議システム「V-CUBEミーティング」は、
モバイル端末があれば、どこからでもカンタンにWeb会議ができます。

相手の顔を見て話ができるだけでなく、1つの資料を全員で共有したり、
会議を録画して議事録として利用することができます。

━━━━━━━━━━━━━━━━━━━━━━━━━━━━━━
(本件問合せ先)
ビジネスプラス・コンシェルジュデスク
TEL：0120-688-360（フリーダイヤル）
受付時間：平日9：30 ～17:30　(土・日・祝日および年末年始は休業)
━━━━━━━━━━━━━━━━━━━━━━━━━━━━━━
