━━━━━━━━━━━━━━━━━━━━━━━━━━━━━━
V-CUBEミーティングからのお知らせ
━━━━━━━━━━━━━━━━━━━━━━━━━━━━━━
Web会議システムのご利用ありがとうございます。

パスワードの再発行申請を受け付けました。
下記をご確認の上、許可もしくは拒否の手続きをお願いいたします。

■申請者ID
{$member_id}

■申請者名
{$name}

■パスワードの再発行を許可する
<{$smarty.const.N2MY_BASE_URL}a/{$authorize_key}>

■パスワードの再発行を拒否する
<{$smarty.const.N2MY_BASE_URL}k/{$ignore_key}>

※有効期限：メール送信から24時間以内


━━━━━━━━━━━━━━━━━━━━━━━━━━━━━━
■V-CUBEミーティング
<{$smarty.const.N2MY_BASE_URL}>
■開発・運営:
株式会社ブイキューブ <http://www.vcube.co.jp/>
〒153-0051 東京都目黒区上目黒2-1-1 中目黒GTタワー20F
■カスタマーサポートセンター
電話番号: 0570-002192（24時間365日電話受付）
E-mail: <vsupport@vcube.co.jp>
━━━━━━━━━━━━━━━━━━━━━━━━━━━━━━
