"faq_key"	"faq_category"	"faq_subcategory"	"faq_question"
29	1	3	"海外でも利用できますか？"
51	3	3	"推奨はブロードバンド環境（上り128kbps、下り384kbps以上）とありますが、これ以下の回線速度の場合、どのような不都合が発生するのでしょうか？"
75	2	3	"初期費用はいくらですか？"
77	2	3	"解約後に、再開する場合は、初期費用はかかるのでしょうか？"
78	1	3	"1契約で複数のセミナーを同時に開催することはできますか？"
1101	1	1	"申し込みの前に、無料で試用することはできますか？"
1102	1	1	"IDとパスワードをなくしてしまったのですが、どうすればいいでしょうか？"
1103	1	1	"Macで利用できますか？"
1104	1	1	"インターネットは利用できないが、イントラネット上で利用したい。"
1106	1	1	"セキュリティは万全なのでしょうか？"
1107	1	1	"最低利用期間など、利用期間に関する制限はありますか？"
1108	1	1	"海外でも利用できますか？"
1201	1	2	"IDの管理はユーザ毎で行うのでしょうか？"
1202	1	2	"1契約につきいくつの拠点間での会議が可能でしょうか？"
1203	1	2	"オーディエンス機能とはなんでしょうか？"
1204	1	2	"社外の人間と会議をしたいのですが、ID・パスワードを教えたくありません。"
1205	1	2	"IDを持っていないユーザも参加することはできますか？"
1206	1	2	"1契約で複数の会議を同時に開催することはできますか？"
1207	1	2	"自分のPCで動いているアプリケーションの画面を表示・共有できますか？"
1208	1	2	"ホワイトボードの内容をコピー＆ペーストすることはできますか？"
1209	1	2	"ホワイトボードには、どのような資料が貼り付けられますか？"
1210	1	2	"ホワイトボードに貼り付ける資料の容量制限はありますか？"
1211	1	2	"他社テレビ会議サービスとの違いについて教えてください。"
1212	1	2	"pigeOne!を利用するために必要な機器などは何ですか？"
1213	1	2	"ASPサーバーが落ちた場合どうなりますか？"
1217	1	2	"5拠点で利用する場合の必要帯域は？"
1218	1	2	"フレームレートはいくつですか？"
2201	2	2	"初期費用はいくらですか？"
2203	2	2	"料金体系の詳細をおしえてください。"
2204	2	2	"解約後に、再開する場合は、初期費用はかかるのでしょうか？"
2205	2	2	"ルーム制では「1会議室あたり」とありますが、利用ユーザー数に制限はあるのでしょうか？"
3101	3	1	"ファイアウォール（リバースプロキシやNAT）からの接続に対応していますか？"
3102	3	1	"映像と音声のコーデックは何を使用していますか？"
3103	3	1	"使用しているプロトコルは何でしょうか？"
3104	3	1	"映像・音声・データのやりとりや、ログインＩＤなどは、どのようなセキュリティ対応をされているのか教えてください。"
3105	3	1	"カメラは何が使えますか？推奨カメラなどはありますか？"
3106	3	1	"推奨動作環境を教えてください。"
3107	3	1	"必須動作環境を教えてください"
3108	3	1	"推奨ブロードバンド環境（上り128kbps、下り384kbps以上）とありますが、これ以下の回線速度の場合、どのような不都合が発生するのでしょうか？"
4101	4	1	"回線速度を測定中のまま進まない"
4102	4	1	"回線速度を測定する画面でエラーが表示される（プロキシ）"
4103	4	1	"遅延がひどく、会議になりません。"
4104	4	1	"自分の映像が表示されない"
4105	4	1	"相手の映像が表示されない"
4106	4	1	"自分の音声が相手に届かない"
4107	4	1	"相手の音声が自分に届かない（音が出ない）"
4108	4	1	"音が小さいのですが、どうすればいいでしょうか？"
4109	4	1	"自分の声がエコーしてしまいます。直し方はありますか？"
4110	4	1	"相手の声がノイズが多くてよく聞こえない"
4111	4	1	"クリックしてもページが表示されない（ポップアップ表示がブロックされてしまう）"
4112	4	1	"映像の縦横比がおかしい"
5101	5	1	"推奨のマイクなどありますか？"
5102	5	1	"会議中に他の作業をしていると、会議の処理が遅いように感じるのですが？"
5103	5	1	"自分の映像が表示されない"
5104	5	1	"相手の映像が表示されない"
5105	5	1	"自分の音声が相手に届かない"
5106	5	1	"相手の音声が自分に届かない（音が出ない）"
5107	5	1	"音が小さいのですが、どうすればいいでしょうか？"
5108	5	1	"自分の声がエコーしてしまいます。直し方はありますか？"
