━━━━━━━━━━━━━━━━━━━━━━━━━━━━━━
pigeOne!的通知
━━━━━━━━━━━━━━━━━━━━━━━━━━━━━━
感谢使用视频会议系统。

管理员已批准密码重置的申请。
新密码如下。


■新密码
{$member_pass}


━━━━━━━━━━━━━━━━━━━━━━━━━━━━━━
■pigeOne!
<{$base_url}>
■Developed and Managed by:
CROSS HEAD <http://www.crosshead.co.jp/>
■Product Support:
Phone Number: 03-4577-8609（10 am to 5pm on Weekdays）
E-mail: <product-support@crosshead.co.jp>
━━━━━━━━━━━━━━━━━━━━━━━━━━━━━━
