"faq_key"	"faq_category"	"faq_subcategory"	"faq_answer"
29	1	3	"Ya, hal itu memungkinkan. Karena itu merupakan sistem video berbasis web konferensi, adalah mungkin untuk menggunakan internet jika memungkinkan, bahwa kita bisa berpartisipasi dengan siapa saja."
51	3	3	"Keterlambatan suara dan video akan terjadi."
75	2	3	"Tersedia variasi menurut paket, silakan hubungi Pusat Layanan Pelanggan kami.
Pusat Layanan Pelanggan: 0570-00-2192"
77	2	3	"Ya, kami akan membebankan biaya setup awal sebesar 47.250 Yen (termasuk pajak)."
78	1	3	
1101	1	1	"Ya, Anda dapat mendaftar secara online untuk account percobaan selama 2 minggu."
1102	1	1	"Hubungi kami melalui telepon (0570-00-2192) atau e-mail. Kami akan mengirimkan informasi setelah kami mengkonfirmasi identitas Anda."
1103	1	1	"Ya, tetapi Anda tidak dapat menggunakan beberapa bagian dari fitur pada Mac.
Fitur yang tidak tersedia seperti Sharing2, Sharing3 (menerima data sharing tersedia untuk Mac), Chacker2."
1104	1	1	"Ya, Anda dapat membeli server untuk menjalankan V-CUBE Meeting pada intranet Anda untuk keamanan tambahan. Silahkan hubungi tim penjualan kami untuk lebih jelasnya. (0570-00-2192)"
1105	1	1	"Kami menawarkan sewa kamera web. Silakan tanya tim penjualan kami untuk informasi lebih lanjut."
1106	1	1	"Aplikasi V-cube sangat aman. V-cube menggunakan protokol asli untuk video dan audio, dan SSL (Secured Socket Layer) untuk dokumen seperti teks chat dan file sharing. Untuk menggunakan SSL pada seluruh komunikasi adalah opsional."
1107	1	1	"Tidak, tidak ada istilah kontrak minimum. Ini adalah atas dasar bulan ke bulan."
1108	1	1	"Ya, sistem konferensi video web kami selalu tersedia di mana Anda dapat mengakses ke internet.
(Ada beberapa kasus Anda tidak dapat mengakses, karena kecepatan jaringan, atau adanya pembatasan politik di negara Anda.)"
1201	1	2	"Satu ID dan kata sandi dikeluarkan per kontrak. Anda dapat berbagi ID dan kata sandi dengan pengguna sebanyak yang Anda inginkan. Mungkin lebih mudah bagi Anda untuk berpikir dengan cara ini, Anda menyewa sebuah 'ruang maya' dan Anda memiliki hak untuk memungkinkan orang untuk menggunakannya."
1202	1	2	"Ya, dengan paket ""Premium 20+"", sampai dengan 20 lokasi dapat berkomunikasi tatap muka, dan sampai dengan 100 lokasi dapat dihubungkan secara bersamaan dengan menggunakan fitur opsional ""Audience""."
1203	1	2	"Pemirsa dapat mengaudit konferensi. Peserta ""Audience"" dapat melihat dan mendengarkan meeting. Mereka dapat mengekspresikan pendapat mereka jika izin peserta normal."
1204	1	2	"Dengan menggunakan fitur 'UNDANGAN' Anda dapat mengirimkan e-mail undangan dengan hyperlink secara otomatis untuk semua tamu Anda. Hal ini akan memungkinkan para tamu Anda untuk memiliki 'satu-klik akses' ke dalam ruangan. Tidak hanya mengamankan ID & kata sadi Anda, tapi juga menghilangkan kerumitan untuk tamu Anda."
1205	1	2	"Ya, itu adalah mungkin untuk berpartisipasi ke dalam meeting menggunakan hyperlink yang dikirim kepada Anda oleh 'e-mail undangan'. *Sebuah alamat e-mail diperlukan untuk menerima undangan."
1206	1	2	"Tidak, Anda hanya dapat memiliki satu meeting pada suatu waktu per ID akun & kata sandi. Pada dasarnya, konsep ini adalah bahwa Anda menyewa satu 'ruangan', oleh karena itu, Anda hanya dapat memiliki satu meeting pada suatu waktu. Silahkan, hubungi pusat dukungan jika Anda ingin membuat 'ruangan' yang lain atau akun ID & kata sandi."
1207	1	2	"Ya, Anda dapat mengaktifkan fitur desktop sharing dan menunjukkan dokumen dan aplikasi yang berjalan di desktop Anda. Fitur ini juga akan memungkinkan orang untuk mengambil kendali PC Anda. Sharing merupakan fitur opsional."
1208	1	2	"Tidak, itu tidak tersedia.
Anda dapat melihat data pada whiteboard dari menu Arsip. Juga, Anda dapat meng-unggah / meng-unduh berkas dengan menggunakan fitur ""transfer file"" di ruang meeting."
1209	1	2	"Anda dapat meng-unggah berkas gambar seperti BMP, JPEG, GIF, TIFF, dan dokumen seperti Word, Excel, PowerPoint, PDF."
1210	1	2	"Anda dapat meng-unggah sampai dengan 20MB/100 halaman per 1 berkas. Jika berkas Anda melebihi 20MB atau 100 halaman, Anda dapat meng-unggah berkas dengan membagi berkas tersebut."
1211	1	2	"Ada 4 perbedaan besar:
1. Tidak perlu menginstal apapun
2. Lintas platform, Anda dapat menggunakannya pada Macintosh serta pada PC Windows.
3. Hal ini juga dapat terhubung ke terminal SIP/H.323.
4. Bypass proxy dan firewall. Tidak perlu untuk setiap perubahan dalam pengaturan LAN perusahaan."
1212	1	2	"Yang Anda butuhkan adalah koneksi internet broadband, komputer, kamera web dan headset."
1213	1	2	"Dalam hal server turun, kami memiliki server cadangan di beberapa lokasi yang akan membuat layanan kami berjalan 24/7."
1214	1	2	"Silakan tanya tim penjualan kami untuk informasi lebih lanjut."
1215	1	2	"Jika sistem Anda menggunakan terminal H.323, jawabannya adalah ya. Tapi Anda harus mendaftar untuk layanan opsional H.323. Silahkan hubungi tim dukungan kami untuk lebih jelasnya."
1216	1	2	"Biasanya kami tidak menawarkan percobaan gratis pada fitur ini, tetapi kita bisa membuat pengecualian. Silakan tanya tim penjualan kami untuk informasi lebih lanjut. (0570-00-2192)"
1217	1	2	"Setidaknya Anda memerlukan kecepatan unggah 256kbps dan kecepatan unduh 512kbps."
1218	1	2	"Secara otomatis berubah tergantung pada jumlah peserta yang terhubung. Tapi frame rate maksimum yang dapat Anda dapatkan adalah 15fps."
2201	2	2	"Ya, ada satu kali biaya aktivasi sebesar 47.250 Yen (termasuk pajak) untuk paket apapun."
2202	2	2	"Silakan tanya tim dukungan kami untuk mendapatkan perkiraan. (Tel : +62-(0)21-7052-2125)"
2203	2	2	"Kami memiliki beberapa paket mulai dari 10.395 Yen (termasuk pajak) per bulan. Ini adalah biaya tetap tidak peduli berapa banyak peserta ada. Hal ini seperti menyewa ruang konferensi virtual secara online dengan account dan Anda bebas untuk menggunakannya seperti yang Anda suka. Lihat rincian harga untuk info lebih lanjut."
2204	2	2	"Ya, kami akan membebankan biaya setup awal sebesar 45.000 Yen."
2205	2	2	"Ini akan tergantung pada jenis paket harga yang Anda beli. Silahkan hubungi tim dukungan kami untuk mencari tahu apa keterbatasan pada paket masing-masing."
3101	3	1	"Ya, layanan kami dirancang untuk melewati firewall. Namun, jika Anda terhubung melalui proxy server Anda mungkin mengalami kecepatan koneksi lambat. Penundaan tersebut dapat dihindari dengan membuka port 1935 ke luar. Untuk keterangan lebih lanjut silahkan hubungi tim dukungan kami."
3102	3	1	"Flash digunakan untuk video encode/decode.
Untuk video, menggunakan H.264, codec Sorenson Spark oleh Sorenson Media dan codec On2 VP6 oleh On2Technology.
Untuk suara, menggunakan codec Nellymoser dan beberapa codec lainnya."
3103	3	1	"Protokol RTMP dan turunannya (RTMPT, RTMPS, RTMPS-TLS) digunakan dalam Server Komunikasi Flash."
3104	3	1	"SSL digunakan untuk semua komunikasi kecuali video dan suara. Video stream dapat diamankan dengan menggunakan protokol RTMPS(443) dari ""pengaturan protokol port"" yang menggunakan jalur SSL."
3105	3	1	"Anda dapat menggunakan kamera internal, atau web cam USB standar."
3106	3	1	"Lihat halaman Dukungan.
http://www.vcube.com/requirements/meeting.html"
3107	3	1	"Lihat halaman Dukungan.
http://www.vcube.com/requirements/meeting.html"
3108	3	1	"Penundaan dalam gambar dan suara akan sangat buruk."
4101	4	1	"Hal ini mungkin terjadi karena kecepatan koneksi internet terlalu lambat atau kinerja PC lambat. Silakan coba log in lagi. Jika itu terjadi lagi, PC mungkin tidak memenuhi persyaratan sistem minimum (koneksi internet atau spesifikasi). Silakan lihat persyaratan kami untuk lebih jelasnya."
4102	4	1	"Anda mungkin tidak dapat menggunakan layanan ini dalam lingkungan jaringan Anda. Ada beberapa kemungkinan alasan:
1. Server proxy jaringan Anda sudah tua.
2. Pengaturan keamanan jaringan terlalu tinggi.
3. Jaringan terlalu lambat.
Kadang-kadang Anda dapat mengatasinya dengan masuk kembali ke ruang meeting.
Jika Anda masih tidak bisa menyelesaikan masalah ini, silakan tanya tim dukungan kami. Kami dapat menyarankan cara terbaik untuk mengakomodasi lingkungan jaringan Anda."
4103	4	1	"1) Periksa lingkungan PC Anda menggunakan Checker.
※Lihat Panduan Checker untuk melihat bagaimana menggunakan Checker.
2) Bagaimana PC Anda Terhubung?
→ISDN atau Dial up
Kecepatan koneksi PC Anda kurang dari apa yang kami rekomendasikan.
→ADSL/DSL/T-1 (Pergi ke 3)
3) Apakah koneksi Anda melalui proxy?
→Ya. Melalui proxy.
Jika Anda terhubung melalui proxy server Anda mungkin mengalami kecepatan koneksi lambat. Keterlambatan dapat dihindari dengan membuka port 1935 ke luar. Silakan berbicara dengan departemen TI Anda.
→Tidak. Tidak melalui proxy. (Pergi ke 4)
4) Apakah PC Anda memiliki prosesor yang lebih baru dari Pentium III 533 MHz?
→Tidak.
PC Anda tidak cukup cepat. Anda harus memiliki PC yang memenuhi atau melebihi persyaratan minimum sistem.
→Ya. (Pergi ke 5).
5) Apakah ada aplikasi lain yang terbuka?
→Ya.
Tutup aplikasi lain, sistem anda mungkin kekurangan sumber daya.
→Tidak.
Tampaknya ujung video adalah alasan penundaan. PC Anda tidak dapat melihat gambar video karena terlalu tua atau itu adalah notebook. Silakan coba gunakan PC lain."
4104	4	1	"1) Periksa lingkungan PC Anda menggunakan Checker.
※Lihat Panduan Checker untuk melihat bagaimana menggunakan Checker.
2) Apakah ada kamera web yang terhubung?
→Tidak.
Hubungkan kamera USB atau kamera IEEE 1934.
→Ya. (Pergi ke 3)
3) Apakah OS Anda mengenali kamera?
→Tidak.
Buat OS Anda mengenali kamera dengan menginstal driver.
→Ya. (Pergi ke 4)
4) Dapatkah Anda melihat gambar Anda ketika Anda meng-klik ""tombol kamera"" yang terletak di bawah bingkai di mana gambar Anda seharusnya?
→Ya.
Kadang-kadang Anda harus meng-klik tombol kamera untuk menampilkan gambar Anda.
→Tidak. (Pergi ke 5)
5) Apakah Anda klik ""menyetujui"" pada jendela kecil yang muncul setelah meng-klik tombol start meeting?
→Tidak.
Tutup jendela pertemuan dan mulai lagi.
→Ya. (Pergi ke 6)
6) Apakah ada aplikasi lain yang menggunakan kamera?
→Ya.
Tutup aplikasi yang menggunakan kamera dan klik tombol start meeting lagi.
→Tidak.
Kamera mungkin tidak kompatibel, atau mungkin rusak. Coba restart PC Anda, jika itu tidak berhasil, hubungi dukungan teknis pembuat kamera."
4105	4	1	"1) Periksa lingkungan PC peserta lain menggunakan Checker.
※Lihat Panduan Checker untuk melihat bagaimana menggunakan Checker.
2) Apakah mereka login?
→Tidak. Minta mereka untuk login.
→Ya. (Pergi ke 3)
3) Dapatkah mereka melihat gambar mereka sendiri pada PC mereka?
→Tidak. mereka harus mengaturnya sehingga mereka dapat melihat foto-foto mereka pada PC mereka sendiri. (Lihat di atas ""gambar diri tidak bisa dilihat"".)
→Ya. (Pergi ke 4)
4) Dapatkah Anda melihat nama mereka?
→Tidak. Mungkin ada beberapa masalah yang sistematis. Cobalah memulai pertemuan lagi.
→Ya. (Pergi ke 5)
5) Dapatkah Anda melihat teks yang Anda ketik pada jendela chat?
→Tidak. Anda mungkin tidak tersambung. Cobalah memulai pertemuan lagi.
→Ya. Peserta lain mungkin tidak tersambung. Cobalah memulai pertemuan lagi. (Lihat di atas ""gambar diri tidak bisa dilihat"".)"
4106	4	1	"1) Periksa lingkungan PC Anda menggunakan Checker.
※Lihat Panduan Checker untuk melihat bagaimana menggunakan Checker.
2) Apakah ada mikrofon yang terhubung ke PC Anda?
→Tidak. Hubungkan mikrofon ke PC Anda.
→Ya. (Pergi ke 3)
3) Apakah Anda klik ""menyetujui"" pada jendela kecil yang muncul setelah mengklik tombol start meeting?
→Tidak. Tutup jendela meeting dan mulai lagi. Anda harus meng-klik ""menyetujui"" pada jendela kecil.
→Ya. (Pergi ke 4)
4) Apakah fungi mute mikrofon sudah diatur?
→Ya. Hapus tanda centang mikrofon mematikan dan mengatur volume tinggi pada bagian perangkat Suara dan Audio dari kontrol panel.
→Tidak. (Pergi ke 5)
5) Pergi ke kontrol panel.> Temukan perangkat suara dan audio.> Audio> Rekaman> Klik Volume> Apakah kotak mikrofon dicentang?
→Tidak. Centang kotak mikrofon.
→Ya. (Pergi ke 6)
6) Bisakah orang lain mendengar Anda berbicara ketika Anda meng-klik tombol saklar mikrofon?
→Ya. Kadang-kadang Anda harus meng-klik tombol saklar mikrofon, terutama ketika ada beberapa mikrofon terhubung ke PC atau karena keadaan OS.
→Tidak. Mikrofon mungkin tidak kompatibel, atau mungkin rusak. Coba restart PC Anda. Jika itu tidak berhasil, hubungi dukungan teknis pembuat kamera."
4107	4	1	"1) Periksa lingkungan PC Anda menggunakan Checker.
※ Lihat Panduan Checker untuk melihat bagaimana menggunakan Checker.
2) Apakah ada speaker atau headphone yang terhubung ke PC Anda?
→Tidak. Hubungkan speaker atau headphone ke PC Anda.
→Ya. (Pergi ke 3)
3) Apakah fungsi mute speaker atau headphone sudah diatur?
→Ya. Hapus tanda centang mikrofon mematikan dan mengatur volume tinggi pada bagian perangkat Suara dan Audio dari kontrol panel.
→Tidak. (Pergi ke 4)
4) Apakah volume PC dalam keadaan mati?
→Ya. Hidupkan volume. (Pastikan untuk menghidupkan volume PC.)
→Tidak. Konfigurasi pengguna lain mungkin tidak normal. Minta mereka untuk memeriksa. (Lihat di atas ""Peserta lain tidak dapat mendengar suara saya"")"
4108	4	1	"Anda mungkin menghidupkan fungsi mute atau menurunkan volume. Hapus tanda centang fungsi mute pada mikrofon dan atur volume tinggi pada bagian perangkat Suara dan Audio dari kontrol panel."
4109	4	1	"Apakah orang yang Anda ajak bicara menggunakan speaker?
→Ya. Mikrofon menangkap suara Anda melalui speaker. Echo akan hilang jika orang menggunakan headset. Orang tersebut membutuhkan mikrofon dengan fungsi penghilang echo jika menggunakan speaker.
Referensi: Echo cancellation microphone ""ACCUMICII"" oleh ClearOne.
→Tidak. Jika menggunakan headset murah, echo kadang-kadang terjadi."
4110	4	1	"1) Apakah mereka menggunakan headset?
→Tidak. Minta mereka untuk menggunakan headset.
→Ya. (Pergi ke 2)
2) Apakah mikrofon yang mereka gunakan adalah mikrofon directional?
→Ya. Mungkin ada beberapa masalah dengan PC mereka. Minta mereka untuk restart PC mereka dan login lagi.
→Tidak. Kami sarankan Anda menggunakan headset yang berkualitas baik.

Kadang-kadang mic internal web cam membuat beberapa noise. Jika Anda menggunakan web cam dengan mic internal, cobalah menonaktifkan mic internal dari device manager."
4111	4	1	"Jika Anda menggunakan ""Windows XP Service Pack 2"", pop-up akan diblokir. Pada browser Anda klik 'Tools'> Ke 'Pop-up Blocker'> 'Pop-up Blocker Settings'. Pada kotak berlabel ""Address of Web site to allow"", ketik ""www.nice2meet.us"" (tanpa tanda kutip) Klik tombol 'Add' untuk menambahkannya ke daftar yang diperbolehkan. Klik tombol 'Close' untuk menyimpan pengaturan Anda."
4112	4	1	"Tergantung pada perangkat, Anda akan mendapatkan gambar diperkecil atau bar hitam ketika mengubah daya tangkap ukuran video. Lihat spesifikasi dan dokumen konfigurasi pada perangkat video."
5101	5	1	"Kami merekomendasikan menggunakan mikrofon USB (Biasanya tidak ada terminal input suara. Jika ada, mereka tidak dapat digunakan dalam banyak kasus.) Anda mungkin mengalami howling atau echo dengan iSight atau mikrofon komputer."
5102	5	1	"Kami merekomendasikan menggunakan sistem kami di depan. Mungkin ada penundaan ketika jendela pergi ke latar belakang karena urutan pemrosesan adalah dari depan ke belakang pada Mac."
5103	5	1	"1) Apakah ada kamera web yang terhubung?
→Tidak. Hubungkan kamera USB atau kamera IEEE 1934.
→Ya. (Pergi ke 2)
2) Apakah OS Anda mengenali kamera?
→Tidak
Buat OS Anda mengenali kamera dengan menginstal driver.
→Ya (Pergi ke 3).
3) Dapatkah Anda melihat gambar Anda ketika Anda meng-klik ""tombol kamera"" yang terletak di bawah bingkai di mana gambar Anda seharusnya?
→Ya. Kadang-kadang Anda harus mengklik tombol kamera untuk menampilkan gambar Anda. *Anda harus mengklik tombol pada Mac dengan kamera USB karena Mac memiliki driver kamera sendiri..
→Tidak. (Pergi ke 4)
4) Apakah Anda klik ""menyetujui"" pada jendela kecil yang muncul setelah mengklik tombol start meeting?
→Tidak. Tutup jendela meeting dan mulai lagi.
→Ya. (Pergi ke 5).
5) Apakah aplikasi lain untuk kamera terbuka?
→Ya. Tutup aplikasi untuk kamera dan klik tombol start meeting lagi..
→Tidak.
Kamera mungkin tidak kompatibel, atau mungkin rusak. Coba restart PC Anda, jika itu tidak berhasil, hubungi dukungan teknis pembuat kamera."
5104	5	1	"1) Apakah mereka sudah login?
→Tidak. Minta mereka untuk login.
→Ya. (Pergi ke 2)
2) Dapatkah mereka melihat gambar mereka sendiri pada PC mereka?
→Tidak. Mereka harus mengaturnya sehingga mereka dapat melihat gambar mereka pada PC mereka sendiri. (Lihat di atas ""gambar diri tidak bisa dilihat"".)
→Ya. (Pergi ke 3).
3) Dapatkah Anda melihat nama mereka?
→Tidak. Mungkin ada beberapa masalah yang sistematis. Cobalah mulai meeting lagi.
→Ya. (Pergi ke 4)
4) Dapatkah Anda melihat teks yang Anda ketik pada jendela chat?
→Tidak. Anda mungkin tidak tersambung. Cobalah mulai meeting lagi.
→Ya. Peserta lain mungkin tidak tersambung. Cobalah mulai meeting lagi. (Lihat di atas ""gambar diri tidak bisa dilihat"".)"
5105	5	1	"1) Apakah mikrofon yang terhubung ke Mac?
→Tidak. Hubungkan mikrofon ke Mac Anda.
→Ya. (Pergi ke 2)
2) Apakah Anda klik ""menyetujui"" pada jendela kecil yang muncul setelah meng-klik tombol start meeting?
→Tidak. Tutup jendela meeting dan mulai lagi Anda harus meng-klik ""menyetujui"" pada jendela kecil.
→Ya. (Pergi ke 3).
3) Apakah fungi bisu mikrofon sudah diatur?
→Ya. Klik pada Menu Apple. Dan pilih System Preferences>Sound (in Hardware)>Output. Hapus tanda centang pada kotak mute dan hidupkan volume.
→Tidak. (Pergi ke 4)
4) Dapatkah orang lain mendengar Anda berbicara ketika Anda meng-klik tombol mikrofon?
→Ya. Kadang-kadang Anda harus meng-klik tombol mikrofon, terutama ketika ada beberapa mikrofon terhubung ke PC atau karena keadaan OS..
→Tidak. Mikrofon mungkin tidak kompatibel, atau mungkin rusak. Cobalah restart Mac Anda. Jika tidak berhasil, hubungi dukungan teknis pembuat kamera."
5106	5	1	"1) Apakah ada speaker atau headphone yang terhubung ke Mac Anda?
→Tidak. Hubungkan speaker atau headphone ke Mac.
→Ya. (Pergi ke 2)
2) Apakah fungsi mute speaker atau headphone sudah diatur?
→Ya. Klik pada Menu Apple. Dan pilih System Preferences>Sound (in Hardware)>Output. Hapus tanda centang pada kotak mute dan hidupkan volume.
→Tidak (Pergi ke 3)
3) Apakah volume pada komputer dalam keadaan mati?
→Ya. Hidupkan Volume. (Pastikan untuk menghidupkan volume komputer.)
→Tidak. Konfigurasi dari pengguna lain mungkin tidak normal. Minta mereka untuk memeriksa. (Lihat di atas ""Peserta lain tidak dapat mendengar suara saya"")
"
5107	5	1	"Anda mungkin menghidupkan fungsi mute atau menurunkan volume.
Klik pada Menu Apple dan pilih System Preferences>Sound (in Hardware)>Output. Hapus tanda centang pada kotak mute dan hidupkan volume."
5108	5	1	"Apakah orang yang Anda ajak berbicara menggunakan speaker?
→Ya. Mikrofon menangkap suara Anda melalui speaker. Echo akan hilang jika orang tersebut menggunakan headset. Orang tersebut membutuhkan mikrofon dengan fungsi penghilang echo jika menggunakan speaker.
→Tidak. Jika menggunakan headset murah, echo kadang-kadang terjadi."
