━━━━━━━━━━━━━━━━━━━━━━━━━━━━━━
V-CUBE Meeting的通知
━━━━━━━━━━━━━━━━━━━━━━━━━━━━━━
感谢使用视频会议系统。

管理员已批准密码重置的申请。
新密码如下。


■新密码
{$member_pass}


━━━━━━━━━━━━━━━━━━━━━━━━━━━━━━
■V-CUBE Meeting
<{$smarty.const.N2MY_BASE_URL}>
■开发・运营:
V-cube株式会社 <http://www.vcube.com/>
〒153-0051 东京都目黑区上目黑2-1-1 中目黑GT Tower 20F
■客服中心
电话号码: 0570-002192（24小时365天电话支持）
E-mail: <vsupport@vcube.co.jp>
━━━━━━━━━━━━━━━━━━━━━━━━━━━━━━
