━━━━━━━━━━━━━━━━━━━━━━━━━━━━━━
ｐｉｇｅＯｎｅ！からのお知らせ
━━━━━━━━━━━━━━━━━━━━━━━━━━━━━━
Web会議システムのご利用ありがとうございます。

お問い合わせを承りました。
回答まで今しばらくお待ちください。

------------------------------
お問い合わせ内容
------------------------------
■ご質問の種類
{$subject}

■ご質問の詳細
{$body}

━━━━━━━━━━━━━━━━━━━━━━━━━━━━━━
■ｐｉｇｅＯｎｅ！
<{$base_url}>
■販売元: 
クロス・ヘッド株式会社 <http://www.crosshead.co.jp/>
〒107-0052 東京都港区赤坂２－１７－２２　赤坂ツインタワー本館１０F
■プロダクト・サポート
電話番号： 03-4577-8609（平日午前10時～午後5時　電話受付）
E-mail: <product-support@crosshead.co.jp>
━━━━━━━━━━━━━━━━━━━━━━━━━━━━━━
