━━━━━━━━━━━━━━━━━━━━━━━━━━━━━━
{t}8046,_('V-CUBEミーティングからのお知らせ'){/t} 
━━━━━━━━━━━━━━━━━━━━━━━━━━━━━━
{t}8870,_('Web会議システムのご利用ありがとうございます。パスワードの再発行申請を拒否しました。申請者にはメールにて通知されます。'){/t} 

━━━━━━━━━━━━━━━━━━━━━━━━━━━━━━
■{t}9018,_('V-CUBEミーティング'){/t}
<{$smarty.const.N2MY_BASE_URL}>
■{t}8927,_('開発・運営：'){/t} 
{t}8928,_('株式会社ブイキューブ'){/t} {if $info.guest_url_format ==1}http://www.vcube.com/ {else}<http://www.vcube.com/>{/if} 
{t}8071,_('〒153-0051 東京都目黒区上目黒2-1-1 中目黒GTタワー20F'){/t} 
■{t}8888,_('カスタマーサポートセンター'){/t}{t}8838,_('（日本語専用）'){/t} 
{t}8889,_('電話番号：'){/t} 0570-002192({t}8890,_('24時間365日電話受付'){/t}) 
E-mail: {if $info.guest_url_format ==1} vsupport@vcube.co.jp {else} <vsupport@vcube.co.jp>{/if} 
━━━━━━━━━━━━━━━━━━━━━━━━━━━━━━