﻿━━━━━━━━━━━━━━━━━━━━━━━━━━━━━━
来自V-CUBE Meeting的通知
━━━━━━━━━━━━━━━━━━━━━━━━━━━━━━
欢迎使用网络视频会议系统。

以下会议中止的邮件通知已发送给参加者。

■会议名称
{$info.reservation_name}

■召开时间
{$info.reservation_starttime} ～ {$info.reservation_endtime} (GMT {if $info.reservation_place >= 0}+{/if}{$info.reservation_place})


■会议的参加者已向以下参加者发送预约中止的邮件。

{if $guests}{foreach from=$guests item=guest}
- {$guest.name} {if $guest.type == 1} (听众){elseif $guest.type == 2} (资料用户){/if}
　{$guest.email}
{/foreach}{/if}

- 发给参加者的消息
　{$info.mail_body}

━━━━━━━━━━━━━━━━━━━━━━━━━━━━━━
V-CUBE Meeting powered by V-cube, Inc.
