━━━━━━━━━━━━━━━━━━━━━━━━━━━━━━
ประกาศจากห้องประชุม V-CUBE
━━━━━━━━━━━━━━━━━━━━━━━━━━━━━━
ขอบคุณที่ใช้ห้องประชุม V-CUBE

รหัสผ่านใหม่ของคุณที่ร้องขอได้รับการอนุญาตจากผู้ดูแลระบบบัญชีแล้ว.
นี่คือรหัสผ่านใหม่ของคุณ


■รหัสผ่านใหม่
{$member_pass}


━━━━━━━━━━━━━━━━━━━━━━━━━━━━━━
■ห้องประชุม V-CUBE
<{$smarty.const.N2MY_BASE_URL}>
■พัฒนาและดูแลโดย
V-cube, Inc. <http://www.vcube.com/>
Nakameguro GT Tower 20F, 2-1-1 Kamimeguro, Meguro-ku, Tokyo 153-0051
■ศูนย์บริการลูกค้า:
โทรศัพท์: 0570-002192 (เปิด 24/7)
 E-mail: <vsupport@vcube.co.jp>
━━━━━━━━━━━━━━━━━━━━━━━━━━━━━━
