■━━━━━━━━━━━━━━━━━━━━━━━━━━━━━━━━━━■
                     ウェブテレビ会議ご招待のお知らせ
■━━━━━━━━━━━━━━━━━━━━━━━━━━━━━━━━━━■
         ウェブテレビ会議システム "V-CUBE ミーティング" を利用した
                       会議ご招待のお知らせです。

	      現在開催中のウェブテレビ会議に招待されました。
　URLをクリックすることにより、ウェブテレビ会議に参加することができます。
━━━━━━━━━━━━━━━━━━━━━━━━━━━━━━━━━━━━

　□ URL
　　 {$invitation_url}
{if $reservationPassword}

　□ パスワード
　　 {$reservationPassword}
{/if}

■━━━━━━━━━━━━━━━━━━━━━━━━━━━━━━━━━━■
　　　　　　　　　　　　　　　ご利用案内
■━━━━━━━━━━━━━━━━━━━━━━━━━━━━━━━━━━■

　□ ご利用の前に
 　　１．Webカメラとヘッドセットをパソコンに接続してください。
　　　　※会議室へ入室後にカメラ及びヘッドセットを接続すると、
 　  　　音声・映像が取得できず、再入室が必要になります。
　　　　※Webカメラがなくても、音声のみでのご参加が可能です。
　 　２．以下の環境確認ページにアクセスしてください。
　　　　{$base_url}services/tools/checker/
　　　　ネットワーク環境、カメラ、マイクの設定が簡易診断できます。
     ３．時間になったら、上記の「URL」から会議室に入室してください。

　□ 推奨動作環境
　　 以下動作環境ページにてご確認ください。
　   <http://www.nice2meet.us/ja/requirements/meeting.html>

■━━━━━━━━━━━━━━━━━━━━━━━━━━━━━━━━━━■
　　　  ウェブテレビ会議システム "V-CUBE ミーティング" とは？
■━━━━━━━━━━━━━━━━━━━━━━━━━━━━━━━━━━■

　　"V-CUBE ミーティング" は、インターネット上の仮想会議室です。
　　指定したアドレスにアクセスするだけで、遠く離れた場所にいても
　　お互いの顔を見ながら映像と音声によるウェブテレビ会議が可能です。

　　また、共有ホワイトボード機能、会議の録画機能、デスクトップ共有機能、
　　プレゼンス機能等、会議を円滑に進めるための機能が満載です。

 ======================================================================

  　 ■ウェブテレビ会議システム「V-CUBE ミーティング」
　　 {$base_url}

　　 ■開発・運営：株式会社ブイキューブ
　　 http://www.vcube.co.jp/

　　 ■カスタマーサポートセンター　0570-002192（24時間365日電話受付）
 ======================================================================