﻿━━━━━━━━━━━━━━━━━━━━━━━━━━━━━━
来自V-CUBE Meeting的通知
━━━━━━━━━━━━━━━━━━━━━━━━━━━━━━
欢迎使用网络视频会议系统。收到您的咨询。我们的回答让您久等了。

------------------------------
咨询内容
------------------------------
■提问种类
{$subject}

■提问详情
{$body}

━━━━━━━━━━━━━━━━━━━━━━━━━━━━━━
■V-CUBE Meeting
<{$base_url}>
■开发・运营: V-Cube株式会社 <http://www.vcube.co.jp/>
〒153-0051 东京都目黑区上目黑2-1-1 中目黑GT Tower 20F
━━━━━━━━━━━━━━━━━━━━━━━━━━━━━━
