"{t}2412,_('日時'){/t}","{t}6471,_('IPアドレス'){/t}","{t}6728,_('メンバーID'){/t}","{t}484,_('操作'){/t}","{t}6729,_('内容'){/t}"
{foreach from=$opration_logs item=log}
"{$log.create_datetime}","{$log.remote_addr}","{$log.member_id}","{
    if $log.action_name == "login"}{t}2174,_('ログイン'){/t}","{
    elseif $log.action_name == 'logout'}{t}2136,_('ログアウト'){/t}","{
    elseif $log.action_name == 'meeting_in'}{t}6730,_('会議室へ入室'){/t}","{t
        1=$log.info.participant_name
        2=$room_list[$log.info.room_key].room_name
            }6761,_('参加者名: %1$s, 会議室: %2$s'){/t}{
    elseif $log.action_name == 'meeting_out'}{t}6731,_('会議室から退室'){/t}","{t
        1=$log.info.participant_name
        2=$room_list[$log.info.room_key].room_name
            }6761,_('参加者名: %1$s, 会議室: %2$s'){/t}{
    elseif $log.action_name == 'admin_login'}{t}6732,_('管理者ログイン'){/t}","{
    elseif $log.action_name == 'admin_logout'}{t}6733,_('管理者ログアウト'){/t}","{
    elseif $log.action_name == 'cabinet_upload'}{t}6734,_('ファイルアップロード'){/t}","{t
        1=$log.info.participant_name
        2=$room_list[$log.info.room_key].room_name
        3=$log.info.file_name
            }6762,_('参加者名: %1$s, 会議室: %2$s, 資料名: %3$s'){/t}{
    elseif $log.action_name == 'cabinet_download'}{t}6735,_('ファイルダウンロード'){/t}","{t
        1=$log.info.participant_name
        2=$room_list[$log.info.room_key].room_name
        3=$log.info.file_name
            }6762,_('参加者名: %1$s, 会議室: %2$s, 資料名: %3$s'){/t}{
    elseif $log.action_name == 'change_login_password'}{t}6773,_('ログインパスワード変更'){/t}","{
    elseif $log.action_name == 'change_admin_password'}{t}6736,_('管理者パスワード変更'){/t}","{
    elseif $log.action_name == 'setup_room'}{t}625,_('会議室設定'){/t}","{
        if $log.info.room_key}{t
            1=$room_list[$log.info.room_key].room_name
                }6763,_('会議室: %1$s'){/t}{
        else}{t
            }6764,_('一括変更'){/t}{
        /if}{
    elseif $log.action_name == 'ip_add'}{t}6737,_('IPアドレス追加'){/t}","{t
        1=$log.info.ip
            }6765,_('IP: %1$s'){/t}{
    elseif $log.action_name == 'ip_comment_edit'}{t}9216,_('IPアドレスのコメント編集'){/t}","{t
        1=$log.info.ip
            }6765,_('IP: %1$s'){/t}{
    elseif $log.action_name == 'ip_disable'}{t}6738,_('IPアドレス無効'){/t}","{t
        1=$log.info.ip
            }6765,_('IP: %1$s'){/t}{
    elseif $log.action_name == 'ip_enable'}{t}6739,_('IPアドレス有効'){/t}","{t
        1=$log.info.ip
            }6765,_('IP: %1$s'){/t}{
    elseif $log.action_name == 'ip_delete'}{t}6740,_('IPアドレス削除'){/t}","{t
        1=$log.info.ip
            }6765,_('IP: %1$s'){/t}{
    elseif $log.action_name == 'security_setup'}{t}6478,_('会議利用制限'){/t}","{
        t}6481,_('議事録生成設定'){/t}: {
            if $log.info.is_minutes_delete}{t}6484,_('録画時のみ生成'){/t}{
            else}{t}6485,_('すべて生成する'){/t}{/if}, {
        t}6486,_('会議記録パスワード強制設定'){/t}: {
            if $log.info.is_compulsion_pw}{t}6487,_('設定する'){/t}{
            else}{t}6488,_('設定しない'){/t}{/if}{
    elseif $log.action_name == 'member_add'}{t}558,_('メンバー追加'){/t}","{t
        1=$log.info.member_id
            }6766,_('ID: %1$s'){/t}{
    elseif $log.action_name == 'member_update'}{t}607,_('メンバー編集'){/t}","{t
        1=$log.info.member_id
            }6766,_('ID: %1$s'){/t}{
    elseif $log.action_name == 'member_delete'}{t}6741,_('メンバー削除'){/t}","{t
        1=$log.info.member_id
            }6766,_('ID: %1$s'){/t}{
    elseif $log.action_name == 'member_group_add'}{t}6742,_('グループ追加'){/t}","{t
        1=$log.info.group_name
            }6767,_('グループ名: %1$s'){/t}{
    elseif $log.action_name == 'member_group_update'}{t}6743,_('グループ編集'){/t}","{t
        1=$log.info.group_name
            }6767,_('グループ名: %1$s'){/t}{
    elseif $log.action_name == 'member_group_delete'}{t}6744,_('グループ削除'){/t}","{t
        1=$log.info.group_name
            }6767,_('グループ名: %1$s'){/t}{
    elseif $log.action_name == 'mail_wb_upload_address_add'}{t}6745,_('メールファイル貼り込み送信元追加'){/t}","{t
        1=$log.info.mail
            }6768,_('メールアドレス: %1$s'){/t}{
    elseif $log.action_name == 'mail_wb_upload_address_update'}{t}6746,_('メールファイル貼り込み送信元編集'){/t}","{t
        1=$log.info.mail
            }6768,_('メールアドレス: %1$s'){/t}{
    elseif $log.action_name == 'mail_wb_upload_address_delete'}{t}6747,_('メールファイル貼り込み送信元削除'){/t}","{t
        1=$log.info.mail
            }6768,_('メールアドレス: %1$s'){/t}{
    elseif $log.action_name == 'meetinglog_name_edit'}{t}6748,_('会議記録会議名変更'){/t}","{t
        1=$room_list[$log.info.room_key].room_name
        2=$log.info.meeting_name
            }6769,_('会議室: %1$s, 会議名: %2$s'){/t}{
    elseif $log.action_name == 'meetinglog_cabinet_download'}{t}6749,_('会議記録ファイルダウンロード'){/t}","{t
        1=$room_list[$log.info.room_key].room_name
        2=$log.info.meeting_name
        3=$log.info.file_name
            }6770,_('会議室: %1$s, 会議名: %2$s, 資料名: %3$s'){/t}{
    elseif $log.action_name == 'meetinglog_set_password'}{t}6750,_('ログのパスワード設定'){/t}","{t
        1=$room_list[$log.info.room_key].room_name
        2=$log.info.meeting_name
            }6769,_('会議室: %1$s, 会議名: %2$s'){/t}{
    elseif $log.action_name == 'meetinglog_unset_password'}{t}6751,_('ログのパスワード解除'){/t}","{t
        1=$room_list[$log.info.room_key].room_name
        2=$log.info.meeting_name
            }6769,_('会議室: %1$s, 会議名: %2$s'){/t}{
    elseif $log.action_name == 'meetinglog_play_video'}{t}6752,_('会議記録映像再生'){/t}","{t
        1=$room_list[$log.info.room_key].room_name
        2=$log.info.meeting_name
            }6769,_('会議室: %1$s, 会議名: %2$s'){/t}{
    elseif $log.action_name == 'meetinglog_play_minutes'}{t}6753,_('会議記録議事録再生'){/t}","{t
        1=$room_list[$log.info.room_key].room_name
        2=$log.info.meeting_name
            }6769,_('会議室: %1$s, 会議名: %2$s'){/t}{
    elseif $log.action_name == 'meetinglog_delete_video'}{t}6754,_('会議記録映像削除'){/t}","{t
        1=$room_list[$log.info.room_key].room_name
        2=$log.info.meeting_name
            }6769,_('会議室: %1$s, 会議名: %2$s'){/t}{
    elseif $log.action_name == 'meetinglog_delete_minutes'}{t}6755,_('会議記録議事録削除'){/t}","{t
        1=$room_list[$log.info.room_key].room_name
        2=$log.info.meeting_name
            }6769,_('会議室: %1$s, 会議名: %2$s'){/t}{
    elseif $log.action_name == 'meetinglog_public'}{t}6756,_('会議記録映像公開'){/t}","{t
        1=$room_list[$log.info.room_key].room_name
        2=$log.info.meeting_name
            }6769,_('会議室: %1$s, 会議名: %2$s'){/t}{
    elseif $log.action_name == 'meetinglog_unpublic'}{t}6757,_('会議記録映像非公開'){/t}","{t
        1=$room_list[$log.info.room_key].room_name
        2=$log.info.meeting_name
            }6769,_('会議室: %1$s, 会議名: %2$s'){/t}{
    elseif $log.action_name == 'meetinglog_create_movie'}{t}6771,_('動画ファイル生成'){/t}","{t
        1=$room_list[$log.info.room_key].room_name
        2=$log.info.meeting_name
            }6769,_('会議室: %1$s, 会議名: %2$s'){/t}{
    elseif $log.action_name == 'meetinglog_delete_movie'}{t}6758,_('動画ファイル削除'){/t}","{t
        1=$room_list[$log.info.room_key].room_name
        2=$log.info.meeting_name
            }6769,_('会議室: %1$s, 会議名: %2$s'){/t}{
    elseif $log.action_name == 'meetinglog_lock'}{t}380,_('ログの保護'){/t}","{t
        1=$room_list[$log.info.room_key].room_name
        2=$log.info.meeting_name
            }6769,_('会議室: %1$s, 会議名: %2$s'){/t}{
    elseif $log.action_name == 'meetinglog_unlock'}{t}6759,_('ログの保護解除'){/t}","{t
        1=$room_list[$log.info.room_key].room_name
        2=$log.info.meeting_name
            }6769,_('会議室: %1$s, 会議名: %2$s'){/t}{
    elseif $log.action_name == 'meetinglog_delete'}{t}383,_('ログの削除'){/t}","{t
        1=$room_list[$log.info.room_key].room_name
        2=$log.info.meeting_name
            }6769,_('会議室: %1$s, 会議名: %2$s'){/t}{
    elseif $log.action_name == 'meetinglog_multi_delete'}{t}6760,_('会議記録選択削除'){/t}","{
        if ($log.info.type == 1)}{t}6623,_('映像'){/t}{
        elseif ($log.info.type == 2)}{t}6624,_('議事録'){/t}{
        elseif ($log.info.type == 3)}{t}6623,_('映像'){/t} & {t}6624,_('議事録'){/t}{
        elseif ($log.info.type == 4)}{t}6775,_('ログ'){/t}{
        /if}{
        elseif $log.action_name == 'mail_setting'}{t}00000000,_('招待メール設定'){/t}","{
        t}11111,_('HTMLメール'){/t}:{if ($log.info.guest_mail_type == 1)}{t}11111,_('利用する'){/t}{else}{t}11111,_('利用しない'){/t}{/if}; {t}11111,_('招待メールのカッコ（<>）'){/t}:{
        if ($log.info.guest_url_format == 0)}{t}11111,_('あり'){/t}{else}{t}11111,_('なし'){/t}{
        /if}{
    else}{$log.action_name}: その他{
/if}"
{/foreach}