━━━━━━━━━━━━━━━━━━━━━━━━━━━━━━
Information sur V-CUBE Meeting
━━━━━━━━━━━━━━━━━━━━━━━━━━━━━━
Merci d'utiliser V-cube Meeting

Votre demande nous a été transmise, nous vous répondrons dans les plus brefs délais.

------------------------------
Détails de la demande
------------------------------
■Sujet
{$subject}

■Details
{$body}

━━━━━━━━━━━━━━━━━━━━━━━━━━━━━━
■V-CUBE Meeting
<{$smarty.const.N2MY_BASE_URL}>
■Developpé et Géré par:
V-cube, Inc. <http://www.vcube.com/>
Nakameguro GT Tower 20F, 2-1-1 Kamimeguro, Meguro-ku, Tokyo 153-0051
■Service client:
Téléphone : 0570-07-0710(9 am to 5pm on Weekdays)
E-mail: <vsupport@vcube.co.jp>
━━━━━━━━━━━━━━━━━━━━━━━━━━━━━━
