━━━━━━━━━━━━━━━━━━━━━━━━━━━━━━
{t}8894,_('V-CUBEセールス＆サポートからのお知らせ'){/t} 
━━━━━━━━━━━━━━━━━━━━━━━━━━━━━━
{t}8853,_('Web会議システムのご利用ありがとうございます。

お問い合わせを承りました。
回答まで今しばらくお待ちください。'){/t}

------------------------------
{t}111,_('お問い合わせ内容'){/t} 
------------------------------

{if $ask_category == 0}{t}2025,_('サービスについて'){/t}
{elseif $ask_category == 1}{t}2026,_('料金について'){/t}
{elseif $ask_category == 2}{t}2027,_('会議予約の変更について'){/t}
{elseif $ask_category == 3}{t}2028,_('会議予約のキャンセルについて'){/t}
{elseif $ask_category == 4}{t}2029,_('その他'){/t}{/if} 

{$ask_contents}

------------------------------
{t}8857,_('ご登録内容'){/t} 
------------------------------

■{t}2032,_('御社名'){/t} : {$ask_company_name}
■{t}8858,_('部署名'){/t} : {$ask_company_division}
■{t}7510,_('電話番号'){/t} : {$ask_telephone}
■{t}8859,_('FAX番号'){/t} : {$ask_fax}
■{t}8860,_('ご担当者名'){/t} : {$ask_name}
■{t}79,_('E-mailアドレス'){/t} : <{$ask_email}>

━━━━━━━━━━━━━━━━━━━━━━━━━━━━━━
■{t}8896,_('V-CUBEセールス＆サポート'){/t}
<{$smarty.const.N2MY_BASE_URL}>
■{t}8927,_('開発・運営：'){/t} 
{t}8928,_('株式会社ブイキューブ'){/t} {if $info.guest_url_format ==1}http://www.vcube.com/ {else}<http://www.vcube.com/>{/if} 
{t}8071,_('〒153-0051 東京都目黒区上目黒2-1-1 中目黒GTタワー20F'){/t} 
■{t}8888,_('カスタマーサポートセンター'){/t}{t}8838,_('（日本語専用）'){/t} 
{t}8889,_('電話番号：'){/t} 0570-00-2192({t}8890,_('24時間365日電話受付'){/t}) 
E-mail: {if $info.guest_url_format ==1} vsupport@vcube.co.jp {else} <vsupport@vcube.co.jp>{/if} 
━━━━━━━━━━━━━━━━━━━━━━━━━━━━━━
