{t}9008,_('※このメールは送信専用のため、ご返信いただけません。'){/t} 

━━━━━━━━━━━━━━━━━━━━━━━━━━━━━━
{t}9009,_('V-CUBEミーティングからのお知らせ'){/t} 
━━━━━━━━━━━━━━━━━━━━━━━━━━━━━━
{$info.sender} {t}9033,_('様から、
下記のWeb会議への招待が取り消されましたのでご案内いたします。'){/t} 

■{t}2348,_('会議名'){/t} 
{$info.reservation_name}

■{t}8852,_('予約されていた開催日時'){/t} 
{$guest.starttime} ～ {$guest.endtime} (GMT {if $guest.timezone >= 0}+{/if}{$guest.timezone})

------------------------------
{t 1=$info.sender|escape:"html"}9026,_('%1$s様からのメッセージ'){/t} 
------------------------------
{$info.mail_body} 
{t 1=$info.sender_mail|escape:"html"}8885,_('※このメールはシステムから自動送信されています。
この会議のご招待についてのお問い合わせは、%1$sにご連絡下さい。'){/t} 
{if $info.guest_url_format ==1}
 {$info.sender_mail}
{else}
　<{$info.sender_mail}>
{/if}

------------------------------
{t}9025,_('V-CUBEミーティングとは？'){/t} 
------------------------------
{t}8883,_('Web会議システム「V-CUBEミーティング」は、インターネット回線とパソコンさえあればカンタンに会議ができます。

相手の顔を見て話ができるだけでなく、1つの資料を全員で共有したり、会議を録画して議事録として利用することができます。'){/t} 

━━━━━━━━━━━━━━━━━━━━━━━━━━━━━━
■{t}9018,_('V-CUBEミーティング'){/t} 
{if $info.guest_url_format ==1}{$base_url}{else}<{$base_url}>{/if} 
■{t}8927,_('開発・運営：'){/t} 
{t}8928,_('株式会社ブイキューブ'){/t} {if $info.guest_url_format ==1}{t}9449,_('http://www.vcube.com/'){/t} {else}<{t}9449,_('http://www.vcube.com/'){/t}>{/if} 
{t}8071,_('〒153-0051 東京都目黒区上目黒2-1-1 中目黒GTタワー20F'){/t} 
■{t}8888,_('カスタマーサポートセンター'){/t}{t}8838,_('（日本語専用）'){/t} 
{t}8889,_('電話番号：'){/t} {t}9450,_('0570-002192'){/t}({t}8890,_('24時間365日電話受付'){/t}) 
E-mail: {if $info.guest_url_format ==1} {t}9451,_('vsupport@vcube.co.jp'){/t} {else} <{t}9451,_('vsupport@vcube.co.jp'){/t}>{/if} 
■{t}8888,_('カスタマーサポートセンター'){/t}{t}8839,_('(英語その他)'){/t} 
{t}8889,_('電話番号：'){/t} 
　{t}8841,_('マレーシア'){/t}　+60-3-2202-4120 
　{t}8842,_('シンガポール'){/t}　+65-6636-5862 
　{t}8843,_('中国'){/t}　 +86-400-618-2360 
E-mail：{if $info.guest_url_format ==1} vcube_support@vcube.com {else} <vcube_support@vcube.com>{/if} 
{t}8844,_('対応時間：平日'){/t} 9:00-18:00({t}9488,_('各国の現地時間'){/t}) 
{t}9489,_('土日及び各国の祝日は休業となります。'){/t} 
━━━━━━━━━━━━━━━━━━━━━━━━━━━━━━
