━━━━━━━━━━━━━━━━━━━━━━━━━━━━━━
リアルタイムコラボレーションからのお知らせ
━━━━━━━━━━━━━━━━━━━━━━━━━━━━━━
{$info.sender}様から、下記のWeb会議への
招待が取り消されましたのでご案内いたします。

■会議名
{$info.reservation_name}

■予約されていた開催日時
{$guest.starttime} ～ {$guest.endtime} (GMT {if $guest.timezone >= 0}+{/if}{$guest.timezone})

------------------------------
{$info.sender}様からのメッセージ
------------------------------
{$info.mail_body}

※このメールはシステムから自動送信されています。
　この会議についてのお問い合わせは、下記のアドレス宛にご連絡下さい。
{if $info.guest_url_format ==1}
 {$info.sender_mail}
{else}
　<{$info.sender_mail}>
{/if}
------------------------------
リアルタイムコラボレーションとは？
------------------------------
Web会議システム「リアルタイムコラボレーション」は、
インターネット回線とパソコンさえあればカンタンに会議ができます。

相手の顔を見て話ができるだけでなく、1つの資料を全員で共有したり、
会議を録画して議事録として利用することができます。

━━━━━━━━━━━━━━━━━━━━━━━━━━━━━━
■リアルタイムコラボレーション
http://panasonic.biz/it/sol/rtc/index.html
■運営
パナソニック ソリューションテクノロジー株式会社
〒105-0013 東京都港区浜松町1-17-14 浜松町ビル
http://panasonic.co.jp/avc/pstc/

■お問い合わせ受付窓口
E-mail: {if $info.guest_url_format ==1} support@g-asp.com {else} <support@g-asp.com>{/if} 
