--------------------------------------------------------------------
{t}8871,_('【V-CUBE セールス＆サポート　MYページからの一言メッセージ】'){/t} 
--------------------------------------------------------------------

{t}8267,_('会社名'){/t} ：{$message_company}
{t}531,_('名前'){/t} ：{$message_name}
{t}533,_('メールアドレス'){/t} ：{$message_email}
{t}8279,_('コメント'){/t} ：{$message_comment}