━━━━━━━━━━━━━━━━━━━━━━━━━━━━━━
V-CUBEE Meeting的通知
━━━━━━━━━━━━━━━━━━━━━━━━━━━━━━
感謝使用視訊會議系統。

密碼重新設定申請已被拒絕。
詳細情況請與管理員聯繫。


━━━━━━━━━━━━━━━━━━━━━━━━━━━━━━
■V-CUBE Meeting
<{$smarty.const.N2MY_BASE_URL}>
■開發・運營:
V-cube株式會社 <http://www.vcube.com/>
〒153-0051 東京都目黑區上目黑2-1-1 中目黑GT Tower 20F
■客服中心
電話號碼: 0570-002192（24小時365天電話支援）
E-mail: <vsupport@vcube.co.jp>
━━━━━━━━━━━━━━━━━━━━━━━━━━━━━━
