━━━━━━━━━━━━━━━━━━━━━━━━━━━━━━
V-CUBE Meeting的通知
━━━━━━━━━━━━━━━━━━━━━━━━━━━━━━
感謝使用視訊會議系統。

管理員已批准密碼重置的申請。
新密碼如下。


■新密碼
{$member_pass}


━━━━━━━━━━━━━━━━━━━━━━━━━━━━━━
■V-CUBE Meeting
<{$smarty.const.N2MY_BASE_URL}>
■開發・運營:
V-cube株式會社 <http://www.vcube.com/>
〒153-0051 東京都目黑區上目黑2-1-1 中目黑GT Tower 20F
■客服中心
電話號碼: 0570-002192（24小時365天電話支援）
E-mail: <vsupport@vcube.co.jp>
━━━━━━━━━━━━━━━━━━━━━━━━━━━━━━
