﻿━━━━━━━━━━━━━━━━━━━━━━━━━━━━━━
來自V-CUBE Meeting的通知
━━━━━━━━━━━━━━━━━━━━━━━━━━━━━━
歡迎使用網絡視訊會議系統。收到您提出的問題。收到您的提問，請您稍等。

------------------------------
提問內容
------------------------------
■提問種類
{$subject}

■提問詳情
{$body}

━━━━━━━━━━━━━━━━━━━━━━━━━━━━━━
■V-CUBE Meeting
<{$smarty.const.N2MY_BASE_URL}>
■開發・運營:
V-cube株式會社 <http://www.vcube.com/>
〒153-0051 東京都目黑區上目黑2-1-1 中目黑GT Tower 20F
■客服中心
電話號碼: 0570-002192（24小時365天電話支援）
E-mail: <vsupport@vcube.co.jp>
━━━━━━━━━━━━━━━━━━━━━━━━━━━━━━
