﻿━━━━━━━━━━━━━━━━━━━━━━━━━━━━━━
V-CUBEドキュメントからのお知らせ
━━━━━━━━━━━━━━━━━━━━━━━━━━━━━━
{$info.sender}様からご招待のあった、
下記のWeb会議が中止されましたのでご案内いたします。

■会議名
{$info.reservation_name}

■予約されていた開催日時
{$guest.starttime} ～ {$guest.endtime} (GMT {if $guest.timezone >= 0}+{/if}{$guest.timezone})

------------------------------
{$info.sender}様からのメッセージ
------------------------------
{$info.mail_body}

※このメールはシステムから自動送信されています。
　この会議についてのお問い合わせは、下記のアドレス宛にご連絡下さい。
　<{$info.sender_mail}>

------------------------------
V-CUBEドキュメントとは？
------------------------------
Web会議システム「V-CUBEドキュメント」は、参加者全員で資料を共有し、
ホワイトボードに書き込みも可能なドキュメント（資料）共有システムです。
パソコンや、Android搭載端末やiPadでご利用いただけます。

━━━━━━━━━━━━━━━━━━━━━━━━━━━━━━
■V-CUBEドキュメント
<{$base_url}>
■開発・運営: 
株式会社ブイキューブ <http://www.vcube.co.jp/>
■カスタマーサポートセンター
電話番号: 0570-002192（24時間365日電話受付）
━━━━━━━━━━━━━━━━━━━━━━━━━━━━━━

