﻿━━━━━━━━━━━━━━━━━━━━━━━━━━━━━━
来自V-CUBE Meeting的通知
━━━━━━━━━━━━━━━━━━━━━━━━━━━━━━

来自{$info.sender}的以下网络视频会议的邀请已被取消，特此通知。

■会议名称
{$info.reservation_name}

■预约的召开时间
{$guest.starttime} ～ {$guest.endtime} (GMT {if $guest.timezone >= 0}+{/if}{$guest.timezone})

------------------------------
来自{$info.sender}的消息
------------------------------
{$info.mail_body}

※此邮件已通过系统自动发送。
　关于此会议的咨询，请联系以下地址。
　<{$info.sender_mail}>

------------------------------
什么是V-CUBE Meeting？
------------------------------
网络视频会议系统「V-CUBE Meeting」只要有网络和电脑就可以简便地召开会议。
不仅可以看着对方的表情进行交流，还可以将资料进行全员共享，录制会议，并作为会议记录使用。

━━━━━━━━━━━━━━━━━━━━━━━━━━━━━━
■V-CUBE Meeting
<{$base_url}>
■开发・运营: V-Cube株式会社 <http://www.vcube.co.jp/>
━━━━━━━━━━━━━━━━━━━━━━━━━━━━━━
