"faq_key"	"faq_category"	"faq_subcategory"	"faq_answer"
29	1	3	
51	3	3	
75	2	3	
77	2	3	"Oui, nous facturons un coût d'activation de 150 € (hors taxes)."
78	1	3	
1101	1	1	"Oui, vous pouvez vous inscrire en ligne pour un compte d'essai valable 2 semaines."
1102	1	1	"Contactez-nous par téléphone (+33 (0)9 800 833 40) ou par e-mail. Nous pouvons vous envoyer ces informations une fois que vous nous aurez confirmé votre identité."
1103	1	1	"Oui, mais vous ne pourrez pas utiliser certaines fonctionnalités sur un Mac. Les fonctionnalités incompatibles sont le partage d'écran et l'outil de diagnostique : Sharing2, Sharing3, Checker2."
1104	1	1	"Oui, vous pouvez acheter un serveur et héberger V-CUBE meeting sur votre intranet. Veuillez contacter notre équipe commerciale pour plus de détails. (+33 (0)9 77 19 05 00)"
1105	1	1	"Nous proposons un service de location de webcam. Veuillez contacter notre équipe commercial pour avoir plus de d'information."
1106	1	1	"L'application V-cube est hautement sécurisé. V-cube utilise le protocole SSL (Secured Socket Layer) pour faire transiter les données tels que le chat texte et le partage de fichiers."
1107	1	1	"Non, le contrat n'a pas de durée minimale. Il est reconduit tacitement de mois en mois."
1108	1	1	"Oui, notre système de Webconférence est accessible partout à partir du moment où vous pouvez accéder à internet. Dans certain cas vous ne pourrez pas accéder au service en raison de la vitesse de connexion, ou à cause des restrictions politiques dans le pays où vous êtes."
1201	1	2	"Un seul identifiant / mot de passe est fournit à la signature du contrat. Vous pouvez partager cet identifiant et ce mot de passe avec autant d'utilisateurs que vous le souhaitez. Ce service équivaut à louer une «salle virtuelle» que vous avez le droit de partager avec quiconque."
1202	1	2	"Oui, avec notre offre «Premium 20 +"", jusqu'à 20 personnes peuvent communiquer en même temps, et jusqu'à 100 utilisateurs peuvent être connectés simultanément à l'aide de l'option ""Webinair"". "
1203	1	2	"L'offre ""Webinair"" permet aux participants de visualiser et d'écouter une réunion. Ils peuvent s'exprimer leur opinion, si la permission des participants normaux. "
1204	1	2	"En utilisant la fonction 'INVITATION' vous pouvez envoyer une invitation avec un lien hypertexte généré automatiquement à tous vos invités. Cela permettra à vos clients de joindre la réunion en «un seul clic». Non seulement vous partagez un seul identifiant / mot de passe avec tous vos collaborateurs, mais en plus vos invités accèdent très simplement à la salle de réunion."
1205	1	2	"Oui, il est possible de participer à une réunion à l'aide d'un lien hypertexte envoyé par l'invitation e-mail*. *Une adresse e-mail est nécessaire pour recevoir l'invitation."
1206	1	2	"Non, vous ne pouvez avoir qu'une réunion à la fois par identifiant / mot de passe. Fondamentalement, le concept est que vous louez une «salle de réunion», par conséquent, vous ne pouvez avoir qu'une réunion à la fois. Veuillez contacter notre support commercial si vous souhaitez créer des salles supplémentaires associé à votre compte."
1207	1	2	"Oui, vous pouvez activer la fonction de partage du bureau et présenter les documents et les applications en cours d'exécution sur votre bureau. Cette nouvelle fonctionnalité peut permettre aux gens de prendre le contrôle de votre PC. Le partage est une fonction optionnelle."
1208	1	2	"Non cette fonction n'est pas disponible. Vous pouvez afficher les données sur le tableau blanc dans le menu Archive. Vous pouvez également télécharger les fichiers en utilisant la fonction ""transfert de fichier"" dans la salle de réunion."
1209	1	2	"Vous pouvez télécharger des images tels que BMP, JPEG, GIF, TIFF, et des documents Word, Excel, PowerPoint, PDF."
1210	1	2	"Vous pouvez télécharger jusqu'à 20MB/100pages par 1 fichier. Si votre fichier est ecessing plus 20 Mo ou 100 pages, vous pouvez télécharger le fichier en spliting."
1211	1	2	"Il y a 4 grandes différences : 
1. Pas d'installation d'un logiciel spécifique 
2. Multi-plateforme, vous pouvez l'utiliser sur un ordinateur Macintosh, ainsi que sur PC sous Windows. 
3. Il peut également se connecter à des terminaux compatibles SIP/H.323. 
4. Le service traverse les serveurs proxy et pare-feu. Pas besoin de modifier les paramètres du réseau de l'entreprise. "
1212	1	2	"Tout ce dont vous avez besoin est une connexion Internet haut débit, un ordinateur, une webcam et un micro/casque."
1213	1	2	"Dans le cas où un serveur tombe en panne, nous avons des serveurs de secours sur plusieurs sites qui garantissent que notre service est fonctionnel 24/7."
1214	1	2	"Veuillez contacter notre équipe commercial pour avoir plus de d'information."
1215	1	2	"Si votre système actuel utilise un terminal compatible H.323, la réponse est oui. Mais vous devez vous inscrire au service optionnel H.323. Veuillez contacter notre équipe de support pour plus de détails."
1216	1	2	"Normalement nous ne proposons pas cette fonctionnalité sur les compte d'essai gratuit néanmoins nous pouvons faire des exceptions. Veuillez contacter notre équipe commercial. (+33 (0)9 800 833 40)"
1217	1	2	"Vous devez avoir au moins 256 kbps en upload et en 512kbps en download."
1218	1	2	"Il change automatiquement en fonction du nombre de participants connectés. Mais la fréquence maximale est de 15 images par seconde."
2201	2	2	"Oui, il y a des frais d'activation de 47,250 Yen (hors taxes)."
2202	2	2	"Veuillez contacter notre équipe commerciale pour obtenir des informations. (+33 (0)9 800 833 40)"
2203	2	2	"Nous avons plusieurs offres à partir de  10,395 Yen / mois (hors taxes). Il s'agit d'un montant forfaitaire quel que soit le nombre de participants. Le service équivaut à louer une salle de conférence virtuelle et vous pouvoir l'utiliser comme vous le souhaitez. Contactez notre équipe commerciale pour plus d'information."
2204	2	2	"Oui, nous facturons un coût d'activation de 47,250 Yen (hors taxes)."
2205	2	2	"Cela dépend du type de forfait que vous avez acheté. Veuillez contacter notre équipe commercial pour savoir quelles sont les limites de chaque forfait."
3101	3	1	"Oui, notre service a été conçu pour traverser les pare-feu. Toutefois, si vous vous connectez via un serveur proxy, vous pouvez rencontrer des lenteurs de connexions. Ces lenteurs peuvent être évitée en ouvrant le port 1935 vers l'extérieur. Pour plus de détails veuillez contacter notre support technique."
3102	3	1	"Flash est utilisé pour l'encodage/décodage vidéo. Pour la vidéo plusieurs codec sont utilisés : h.264, Sorenson Spark, On2 VP6. Pour le son, Nellymoser codec et quelques autres codecs sont utilisés."
3103	3	1	"Il s'agit principalement du protocole RTMP et de ses dérivés : RTMPT, RTMPS, RTMPS-TLS qui sont utilisés dans Flash Communication Server."
3104	3	1	"SSL est utilisé pour toutes les communications sauf la vidéo et la voix. Le flux vidéo peut être sécurisé en utilisant le protocole RTMPS (443) qu'il est possible d'activer dans ""paramétrage des ports""."
3105	3	1	"Vous pouvez utiliser votre webcam interne ou webcam USB."
3106	3	1	"Voir la page Support. 
http://www.vcube.com/requirements/meeting.html "
3107	3	1	"Voir la page Support. 
http://www.vcube.com/requirements/meeting.html "
3108	3	1	"Vous aurez une latence importante entre la vidéo et le son."
4101	4	1	"Cela peut se produire parce que la vitesse de connexion Internet est trop lente ou la performance du PC est insuffisante. Veuillez essayer de vous reconnecter. Si cela se produit à nouveau, l'ordinateur peut ne pas satisfaire aux exigences minimales du système (connexion internet ou puissance). Veuillez vous référer à nos recommandations pour plus de détails."
4102	4	1	"Il est possible que vous ne puissiez utiliser ce service dans votre environnement réseau. Il y a plusieurs raisons possibles : 
1. Le serveur proxy de votre réseau est ancien. 
2. Le paramètre de sécurité du réseau est trop élevée. 
3. Le réseau est trop lent. Si vous n'arrivez pas à résoudre ce problème veuillez contacter notre support technique. Nous pouvons vous suggérer la meilleure façon de répondre à votre environnement réseau. "
4103	4	1	"1) Vérifiez l'environnement de votre PC à l'aide du logiciel « Checker ». 
※ Reportez-vous à au manuel pour voir comment utiliser ce logiciel. 
2) Quel type de connexion avez-vous ? 
→ RNIS 　 ou 　 Dial up 
La vitesse de votre connexion internet est probablement inférieure à ce que nous recommandons. 
→ ADSL / DSL / T-1 (Aller à 3) 
3) Vous connectez-vous via un proxy ? 
→ Oui. Si vous vous connectez via un serveur proxy, vous pouvez rencontrer des latences de connexions. La latence peut être évitée en ouvrant le port 1935 vers l'extérieur. Veuillez demander à votre service informatique. 
→ n Non. Ce n'est pas via un proxy. (Passez à 4) 
4) Est-ce que votre PC équipé d'un processeur plus récent qu'un Pentium III 533 MHz? 
→ Non. Votre PC n'est pas assez rapide. Votre devez avoir un PC qui respecte ou dépasse les exigences minimales du système. 
→ Oui. (Passez à 5) 
5) Avez-vous d'autres applications ouvertes ? 
→ Oui. 
Fermez les autres applications, le système n'a peut être plus de ressources. 
→ Non. Il semble que le traitement de la vidéo est la raison de cette latence. Votre ordinateur ne peut pas traiter les images vidéo, car il est trop ancien ou pas assez puissant. Veuillez essayer d'utiliser un autre PC."
4104	4	1	"1) Vérifiez l'environnement de votre PC à l'aide du logiciel « Checker ». 
※ Reportez-vous à au manuelle pour voir comment l'utiliser. 
2) Y'a t-il une webcam connecté au PC ? 
→ Non 
Connectez une webcam USB ou IEEE 1934. 
→ Oui. (Passez à 3) 
3) Est-ce que votre système d'exploitation reconnaît la webcam ? 
→ Non 
Faites votre système d'exploitation reconnaît pas l'appareil en installant le pilote. 
→ Oui. (Passez à 4) 
4) Pouvez-vous voir votre image lorsque vous cliquez sur le bouton ""changer de caméra"" qui est situé sous le cadre où votre image est censée être? 
→ Oui. 
Parfois, vous devez cliquez sur le bouton de commutation de caméra pour afficher votre image. 
→ Non (Passez à 5) 
5) Avez-vous cliqué ""approuver"" sur la petite fenêtre qui s'ouvre après avoir cliqué sur le bouton de démarrage réunion? 
→ Non 
Fermez la fenêtre de la réunion et le redémarrer. 
→ Oui. (Passez à 6) 
6) Les autres applications pour ouvrir la caméra? 
→ Oui. 
Fermez l'application pour appareil photo et cliquez sur le bouton de démarrage se réunir à nouveau. 
→ Non 
la webcam peut ne pas être compatible, ou il peut être rompu. Essayez de redémarrer votre PC, si cela ne fonctionne pas, contactez le support technique du fabricant de la webcam. "
4105	4	1	"1) Vérifiez l'environnement de PC à l'aide des autres participants Checker. 
※ Reportez-vous au manuel pour savoir comment utiliser ce logiciel. 
2) Sont-elles connecté? 
→ n Demandez-leur de vous identifier. 
→ Oui. (Passez à 3) 
3) Peuvent-ils voir leurs propres images sur leur PC? 
→ N ° ils doivent le configurer de sorte qu'ils puissent voir leurs photos sur leurs propres ordinateurs. (Reportez-vous au-dessus ""image de soi peut pas être vu».) 
→ Oui. (Passez à 4) 
4) Pouvez-vous voir leurs noms? 
→ n Il pourrait y avoir quelques problèmes systématiques. Essayez de commencer la réunion à nouveau. 
→ Oui. (Passez à 5) 
5) Pouvez-vous voir le texte que vous tapez sur la fenêtre de chat? 
→ n Vous pourriez ne pas être connecté. Essayez de commencer la réunion à nouveau. 
→ Oui. D'autres participants pourraient ne pas être connecté. Essayez de commencer la réunion à nouveau. (Reportez-vous au-dessus ""image de soi peut pas être vu».) "
4106	4	1	"1) Vérifiez l'environnement de votre PC à l'aide du logiciel ""Checker"". 
※ Reportez-vous au manuel pour savoir comment utiliser ce logiciel. 
2) Est un microphone connecté à votre PC? 
→ Non. Branchez un microphone sur votre PC. 
→ Oui. (Passez à 3) 
3) Avez-vous cliqué ""approuver"" sur la petite fenêtre qui s'ouvre après avoir cliqué sur le bouton de démarrage réunion? 
→ Non. Fermez la fenêtre de la réunion et le redémarrer. Vous devez cliquer sur ""approuver"" sur la petite fenêtre. 
→ Oui. (Passez à 4) 
4) Le microphone muet est mis en place? 
→ Oui. Décochez le microphone en sourdine et régler le volume élevé sur les Sounds and Audio Devices section du panneau de commande. 
→ Non. (Passez à 5) 
5) Allez au panneau de contrôle.> Trouvez les sons et périphériques audio.> Audio> Enregistrement> Cliquez sur l'> Volume est la boîte de microphone vérifié? 
→ Non. Cochez la case du microphone. 
→ Oui. (Passez à 6) 
6) Les autres peuvent vous entendre lorsque vous cliquez sur le bouton interrupteur du microphone? 
→ Oui. Parfois, vous devez cliquer sur le bouton interrupteur du microphone, surtout quand il ya quelques micros connectés à un PC ou à cause de l'état du système d'exploitation. 
→ Non. Le microphone ne soit pas compatible, ou il peut être rompu. Essayez de redémarrer votre PC. Si cela ne fonctionne pas, contactez le support technique du fabricant de la webcam. "
4107	4	1	"1) Vérifiez le fonctionnement de votre PC à l'aide du logiciel ""Checker"". 
※ Reportez-vous au manuel pour savoir comment utiliser ce logiciel. 
2) Y'a-t-il un casque ou un haut-parleur connecté à votre PC ? 
→ Non. Connectez soit un casque soit un haut-parleur à votre PC. 
→ Oui. (Passez à 3) 
3) Le haut-parleur ou le casque a-t-il été coupé (mute) par le système d'exploitation ? 
→ Oui. Décochez le microphone en sourdine et régler le volume via le panneau de configuration de votre système d'exploitation. 
→ Non (Passez à 4) 
4) Le volume du PC est-il au minimum ?
→ Oui. Augmentez le volume. (Assurez-vous de monter le volume du PC.) 
→ Non. La configuration des utilisateurs pourraient ne pas être correcte. Demandez-leur de vérifier leurs microphones. (Reportez-vous au-dessus ""D'autres participants ne peuvent pas entendre ma voix») "
4108	4	1	"Vous avez peut être coupé ou baissé le volume. Décochez le microphone en sourdine et régler le volume via le panneau de configuration de votre système d'exploitation."
4109	4	1	"La personne avec qui vous conversez utilise-t-elle des haut-parleurs ? 
→ Oui. Le microphone de l'interlocuteur réenregistre votre voix à travers les haut-parleurs. Demandez à votre interlocuteur d'utiliser un casque ou un microphone avec annulateur d’écho 
Référence: microphone avec annulateur d'écho ""ACCUMICII"" par ClearOne. 
→ Non. Si c'est un casque bas de gamme il est possible qu'un écho se produise parfois. "
4110	4	1	"1) Est-ce que les participants utilisent un casque ? 
→ Non. Demandez-leur d'utiliser un casque. 
→ oui. (Passez à 2) 
2) Sont ils équipés de microphone directionnel ? 
→ Oui. Il est possible que l'un des participants ait un problème avec son PC. Demandez-leur de redémarrer leur PC et de se connecter à nouveau. 
→ Non. Nous vous recommandons d'utiliser un casque de meilleure qualité. 

Parfois le micro interne de la webcam capte le bruit des ventilateurs du PC. Si vous utilisez une webcam avec un micro interne, essayez de désactiver micro interne par le Gestionnaire de périphériques. "
4111	4	1	"Si vous utilisez ""Windows XP Service Pack 2"", les pop-ups sont bloqués par défaut. Sur «Outils» de votre navigateur cliquez sur > Aller à> ""Pop-up Blocker» «Paramètres du bloqueur de fenêtres pop-up. Dans la case «Adresse du site Web à autoriser"", tapez ""www.nice2meet.us"" (sans les guillemets) Cliquez sur le bouton ""Ajouter"" pour l'ajouter à la liste autorisée. Cliquez sur le bouton «Fermer» pour enregistrer vos paramètres. "
4112	4	1	"En fonction de la webcam vous pouvez avoir une image écrasée, des barres noires ou une vidéo altérée. Veuillez vérifier nos recommandations concernant la configuration de la webcam."
5101	5	1	"Nous vous recommandons d'utiliser des micros USB. Vous pouvez avoir de l'echo ou un bruit parasite si vous utilisez des micros iSight ou le micro interne de votre ordinateur."
5102	5	1	"Nous vous recommandons de ne pas mettre votre fenêtre V-CUBE meeting en tache de fond. Il peut y avoir de la latence lorsque la fenêtre est affiché à l'arrière d'une autre car Mac va lui allouer moins de processeur."
5103	5	1	"1) Y'a-t-il un webcam connecté sur votre PC ? 
→ Non. Connectez une webcam USB ou IEEE 1934. 
→ Oui. (Passez à 2) 
2) Est-ce que votre système d'exploitation reconnaît la webcam ? 
→ Non.
Faites en sorte que votre système d'exploitation reconnaisse la webcam en installant le pilote. 
→ Oui. (Passez à 3) 
3) Pouvez-vous voir votre image lorsque vous cliquez sur le bouton ""changer de caméra"" qui est situé sous le cadre où votre image est censée être ? 
→ Oui. Parfois, vous devez cliquer sur le bouton de commutation de caméra pour que votre image s'affiche. 
→ Non (Passez à 4) 
4) Avez-vous cliqué sur ""approuver"" dans la petite fenêtre qui s'ouvre après avoir cliqué sur le bouton de démarrage de réunion ? 
→ Non. Fermez la fenêtre de la réunion et reconnectez-vous.
→ Oui. (Passez à 5) 
5) Y'a-t-il d'autres logiciels qui utilisent la webcam ?
→ Oui. Fermez les applications qui utilisent la webcam et rerentrez dans la salle de réunion. 
→ Non. La webcam peut ne pas être compatible, ou est en panne. Essayez de redémarrer votre PC, si cela ne fonctionne pas, contactez le support technique du fabricant de la webcam. "
5104	5	1	"1) Sont-ils connecté? 
→ Non. Demandez-leur de se connecter au service. 
→ Oui. (Passez à 2) 
2) Peuvent-ils voir leurs propres images sur leur PC ? 
→ Non, ils doivent configurer leurs PC pour voir leurs propres images sur leurs ordinateurs. (Reportez-vous à la section ""Je ne vois pas mon image ».) 
→ Oui. (Passez à 3) 
3) Pouvez-vous voir leurs noms? 
→ Non. Essayez de recommencer la réunion en demandant à tout le monde de se déconnecter et se reconnecter. 
→ Oui. (Passez à 4) 
4) Pouvez-vous voir le texte que vous tapez sur la fenêtre de chat ? 
→ Non. Vous n'êtes probablement pas connecté correctement. Essayez de vous reconnecter à la réunion. 
→ Oui. D'autres participants pourraient ne pas être connecté. Essayez de vous reconnecter à la réunion. (Reportez-vous à la section ""Je ne vois pas mon image ».) "
5105	5	1	"1) Y'a-t-il un microphone connecté à votre Mac? 
→ Non Branchez un microphone sur votre Mac. 
→ Oui. (Passez à 2) 
2) Avez-vous cliqué sur ""approuver"" sur la petite fenêtre qui s'ouvre après avoir cliqué sur le bouton de démarrage réunion ? → Non. Fermez la fenêtre de la réunion et la redémarrer. Vous devez cliquer sur ""approuver"" sur la petite fenêtre. 
→ Oui. (Passez à 3) 
3) Le microphone a-t-il été mis en sourdine (mute) ? 
→ Oui. Cliquez sur le menu Pomme et sélectionnez Préférences Système> Son (dans Hardware)> Sortie. Décochez la case muet et augmentez sur le volume. 
→ Non (Passez à 4) 
4) Les autres peuvent vous entendre lorsque vous cliquez sur l'icone du microphone ? 
→ Oui. Parfois, vous devez cliquer sur l'icone du microphone, surtout quand il y a plusieurs micros connectés à un PC ou à cause de l'état du système d'exploitation.
→ Non Le microphone n'est pas compatible, ou il peut être en panne. Essayez de redémarrer votre Mac. Si cela ne fonctionne pas, contactez le support technique du fabricant du microphone. "
5106	5	1	"1) Y'a t-il un haut-parleur ou un casque connecté à votre Mac ? 
→ Non. Connectez un haut-parleur ou un casque à votre Mac. 
→ Oui. (Passez à 2) 
2) Le haut-parleur ou le casque ont ils été désactivé (muté) ? 
→ Oui. Cliquez sur le menu Pomme et sélectionnez Préférences Système> Son (dans Hardware)> Sortie. Décochez la case muet et augmenter sur le volume. 
→ Non. (Passez à 3) 
3) Le volume de l'ordinateur a-t-il été coupé ? 
→ Oui. Augmentez le volume. (Assurez-vous de monter le volume de l'ordinateur.) 
→ Non. Certains utilisateurs peuvent avoir un problème sur leur poste. Demandez-leur de vérifier. (Reportez-vous à la section ""Les autres participants ne m'entende pas ») "
5107	5	1	"Le volume est peut être coupé ou réglé très bas. 
Cliquez sur le menu Pomme et sélectionnez Préférences Système> Son (dans Hardware)> Sortie. Décochez la case muet et augmenter le volume. "
5108	5	1	"La personne avec qui vous conversez utilise-t-elle ses haut-parleurs? 
→ Oui. Le microphone réenregistre votre voix à travers les haut-parleurs. L'écho s'arrêtera si la personne utilise un casque. La personne peut aussi utiliser un microphone avec annulateur d'écho si les enceintes sont utilisées. → Non. Si le casque est bas de gamme, un écho peut parfois se produire. "
