━━━━━━━━━━━━━━━━━━━━━━━━━━━━━━
ประกาศจาก pigeOne!
━━━━━━━━━━━━━━━━━━━━━━━━━━━━━━
ขอบคุณที่ใช้ pigeOne!

รหัสผ่านใหม่ที่คุณร้องขอได้รับการปฏิเสธโดยผู้ดูแลระบบบัญชี 
กรุณาติดต่อผู้ดูแลบัญชีเพื่อดูรายละเอียด


━━━━━━━━━━━━━━━━━━━━━━━━━━━━━━
■pigeOne!
<{$base_url}>
■Developed and Managed by:
CROSS HEAD <http://www.crosshead.co.jp/>
■Product Support:
Phone Number: 03-4577-8609（10 am to 5pm on Weekdays）
E-mail: <product-support@crosshead.co.jp>
━━━━━━━━━━━━━━━━━━━━━━━━━━━━━━
