━━━━━━━━━━━━━━━━━━━━━━━━━━━━━━
ประกาศจากห้องประชุม V-CUBE
━━━━━━━━━━━━━━━━━━━━━━━━━━━━━━
ขอบคุณที่ใช้บริการการประชุมผ่านเว็บของเรา แนบไฟล์แล้ว โปรดหาโน้ตแพด ที่ใช้ร่วมกันจากการประชุมด้านล่าง

■หัวเรื่อง
{$meeting_name}

■วัน และเวลา
{$meeting_start_datetime} ～

------------------------------
เกี่ยวกับห้องประชุม V-CUBE
------------------------------
ห้องประชุม V-CUBE เป็นระบบการประชุมทางเว็บวิดีโอบนเทคโนโลยีคลาวด์
มันสามารถใช้ได้ทันทีจากอุปกรณ์หลายประเภทที่เชื่อมต่ออินเทอร์เน็ต

ผู้ใช้สามารถแบ่งปันวิดีโอ, เอกสาร, เก็บข้อมูลการประชุม และเพิ่มผลผลิต กรุณาเพลิดเพลิน

━━━━━━━━━━━━━━━━━━━━━━━━━━━━━━
■ห้องประชุม V-CUBE
<{$smarty.const.N2MY_BASE_URL}>
■พัฒนาและดูแลโดย
V-cube, Inc. <http://www.vcube.com/>
Nakameguro GT Tower 20F, 2-1-1 Kamimeguro, Meguro-ku, Tokyo 153-0051
■ศูนย์บริการลูกค้า:
โทรศัพท์: 0570-07-0710(9 am to 5pm on Weekdays)
 E-mail: <vsupport@vcube.co.jp>
━━━━━━━━━━━━━━━━━━━━━━━━━━━━━━
