━━━━━━━━━━━━━━━━━━━━━━━━━━━━━━
pigeOne!的通知
━━━━━━━━━━━━━━━━━━━━━━━━━━━━━━
感謝使用視訊會議系統。

密碼重新設定申請已被拒絕。
將以郵件形式通知申請者。


━━━━━━━━━━━━━━━━━━━━━━━━━━━━━━
■pigeOne!
<{$base_url}>
■Developed and Managed by:
CROSS HEAD <http://www.crosshead.co.jp/>
■Product Support:
Phone Number: 03-4577-8609（10 am to 5pm on Weekdays）
E-mail: <product-support@crosshead.co.jp>
━━━━━━━━━━━━━━━━━━━━━━━━━━━━━━
