﻿━━━━━━━━━━━━━━━━━━━━━━━━━━━━━━
来自V-CUBE Box 的通知
━━━━━━━━━━━━━━━━━━━━━━━━━━━━━━
欢迎使用网络视频会议系统。收到您的咨询。我们的回答让您久等了。

------------------------------
咨询内容
------------------------------
■提问种类
{$subject}

■提问详情
{$body}

━━━━━━━━━━━━━━━━━━━━━━━━━━━━━━
■V-CUBE Box 
<{$smarty.const.N2MY_BASE_URL}>
■开发・运营:
V-cube株式会社 <http://www.vcube.com/>
〒153-0051 东京都目黑区上目黑2-1-1 中目黑GT Tower 20F
■客服中心
电话号码: 0570-002192（24小时365天电话支持）
E-mail: <vsupport@vcube.co.jp>
━━━━━━━━━━━━━━━━━━━━━━━━━━━━━━
