━━━━━━━━━━━━━━━━━━━━━━━━━━━━━━
V-CUBEミーティングからのお知らせ
━━━━━━━━━━━━━━━━━━━━━━━━━━━━━━
Web会議システムのご利用ありがとうございます。

パスワードの再発行が完了しました。
申請者には、メールにて新パスワードを通知済みです。


━━━━━━━━━━━━━━━━━━━━━━━━━━━━━━
■V-CUBEミーティング
<{$smarty.const.N2MY_BASE_URL}>
■開発・運営:
株式会社ブイキューブ <http://www.vcube.co.jp/>
〒153-0051 東京都目黒区上目黒2-1-1 中目黒GTタワー20F
■カスタマーサポートセンター
電話番号: 0570-002192（24時間365日電話受付）
E-mail: <vsupport@vcube.co.jp>
━━━━━━━━━━━━━━━━━━━━━━━━━━━━━━
