
-----------------------------------------------------------
【Message from V-CUBE Sales & Support】
-----------------------------------------------------------

Company  ：{$message_company}
Name   ：{$message_name}
E-mail：{$message_email}
Comment ：{$message_comment}