━━━━━━━━━━━━━━━━━━━━━━━━━━━━━━
Information sur pigeOne!
━━━━━━━━━━━━━━━━━━━━━━━━━━━━━━
Merci d'utiliser pigeOne!

Votre demande de nouveau mot de passe a été autorisé par l'administrateur du compte. Ceci est votre nouveau mot de passe.


■Nouveau mot de passe
{$member_pass}


━━━━━━━━━━━━━━━━━━━━━━━━━━━━━━
■pigeOne!
<{$base_url}>
■Developpé et Géré par:
CROSS HEAD <http://www.crosshead.co.jp/>
■Support produit:
Téléphone : 03-4577-8609（10 heures-17 heures du lundi au vendredi）
E-mail: <product-support@crosshead.co.jp>
━━━━━━━━━━━━━━━━━━━━━━━━━━━━━━
