━━━━━━━━━━━━━━━━━━━━━━━━━━━━━━
V-CUBEミーティングからのお知らせ
━━━━━━━━━━━━━━━━━━━━━━━━━━━━━━
Web会議システムのご利用ありがとうございます。

パスワードの再発行申請が拒否されました。
詳しくは管理者にお問い合わせ下さい。


━━━━━━━━━━━━━━━━━━━━━━━━━━━━━━
■V-CUBEミーティング
<{$smarty.const.N2MY_BASE_URL}>
■開発・運営:
株式会社ブイキューブ <http://www.vcube.com/>
〒153-0051 東京都目黒区上目黒2-1-1 中目黒GTタワー20F
■カスタマーサポートセンター
電話番号: 0570-002192（24時間365日電話受付）
E-mail: <vsupport@vcube.co.jp>
━━━━━━━━━━━━━━━━━━━━━━━━━━━━━━
