━━━━━━━━━━━━━━━━━━━━━━━━━━━━━━
Pemberitahuan dari pigeOne!
━━━━━━━━━━━━━━━━━━━━━━━━━━━━━━
Terima kasih telah menggunakan pigeOne!

Permohonan perubahan kata sandi anda telah disetujui oleh akun admin. 
Berikut ini adalah kata sandi baru anda.


■Kata sandi baru
{$member_pass}


━━━━━━━━━━━━━━━━━━━━━━━━━━━━━━
■pigeOne!
<{$base_url}>
■Developed and Managed by:
CROSS HEAD <http://www.crosshead.co.jp/>
■Product Support:
Phone Number: 03-4577-8609（10 am to 5pm on Weekdays）
E-mail: <product-support@crosshead.co.jp>
━━━━━━━━━━━━━━━━━━━━━━━━━━━━━━
