━━━━━━━━━━━━━━━━━━━━━━━━━━━━━━
Pemberitahuan dari pigeOne!
━━━━━━━━━━━━━━━━━━━━━━━━━━━━━━
Terima kasih telah menggunakan pigeOne!

Kata sandi baru anda telah dibuat. 
Kami telah mengirim e-mail pemberitahuan ke pengirim permohonan.


━━━━━━━━━━━━━━━━━━━━━━━━━━━━━━
■pigeOne!
<{$base_url}>
■Developed and Managed by:
CROSS HEAD <http://www.crosshead.co.jp/>
■Product Support:
Phone Number: 03-4577-8609（10 am to 5pm on Weekdays）
E-mail: <product-support@crosshead.co.jp>
━━━━━━━━━━━━━━━━━━━━━━━━━━━━━━
