━━━━━━━━━━━━━━━━━━━━━━━━━━━━━━
Pemberitahuan dari pigeOne!
━━━━━━━━━━━━━━━━━━━━━━━━━━━━━━
Terima kasih telah menggunakan pigeOne!

Permohonan perubahan kata sandi anda telah ditolak oleh akun admin. 
Silahkan hubungi akun admin untuk keterangan lebih lanjut.


━━━━━━━━━━━━━━━━━━━━━━━━━━━━━━
■pigeOne!
<{$base_url}>
■Developed and Managed by:
CROSS HEAD <http://www.crosshead.co.jp/>
■Product Support:
Phone Number: 03-4577-8609（10 am to 5pm on Weekdays）
E-mail: <product-support@crosshead.co.jp>
━━━━━━━━━━━━━━━━━━━━━━━━━━━━━━
